<svg width="55" height="52" viewBox="0 0 55 52" fill="none" xmlns="http://www.w3.org/2000/svg">
<path d="M41.0203 0H13.6734L0 25.7361L13.6734 51.4722H41.0203L54.6938 25.7361L41.0203 0Z" fill="#582D4E"/>
<g style="mix-blend-mode:multiply">
<path d="M41.0201 0H27.3467V51.4722H41.0201L54.6936 25.7361L41.0201 0Z" fill="#582D4E"/>
</g>
<path d="M22.525 15.5116V19.8116H24.975V32.1366H30.375V15.5116H22.525Z" fill="white"/>
</svg>
